…
The command is not correct. It truncated half of the result. c(“Rwanda”,
“Afghansitan”) makes a list and then the data form is filtered by a
list. We want to filter the data by country instead of list. If it is
mandatory to use a list, the property is to iterate through the list and
filter by every item in the list:

``` r
filter(gapminder, country %in% c("Rwanda", "Afghanistan"))
```

    ## # A tibble: 24 x 6
    ##    country     continent  year lifeExp      pop gdpPercap
    ##    <fct>       <fct>     <int>   <dbl>    <int>     <dbl>
    ##  1 Afghanistan Asia       1952    28.8  8425333      779.
    ##  2 Afghanistan Asia       1957    30.3  9240934      821.
    ##  3 Afghanistan Asia       1962    32.0 10267083      853.
    ##  4 Afghanistan Asia       1967    34.0 11537966      836.
    ##  5 Afghanistan Asia       1972    36.1 13079460      740.
    ##  6 Afghanistan Asia       1977    38.4 14880372      786.
    ##  7 Afghanistan Asia       1982    39.9 12881816      978.
    ##  8 Afghanistan Asia       1987    40.8 13867957      852.
    ##  9 Afghanistan Asia       1992    41.7 16317921      649.
    ## 10 Afghanistan Asia       1997    41.8 22227415      635.
    ## # ... with 14 more rows
…
#### More dplyr functions for operating on a single table

With “arrange()”, the table can be sort by values in the columns.

``` r
gapminder %>% 
  arrange(lifeExp) %>% 
  filter(continent == 'Africa')
```

    ## # A tibble: 624 x 6
    ##    country       continent  year lifeExp     pop gdpPercap
    ##    <fct>         <fct>     <int>   <dbl>   <int>     <dbl>
    ##  1 Rwanda        Africa     1992    23.6 7290203      737.
    ##  2 Gambia        Africa     1952    30    284320      485.
    ##  3 Angola        Africa     1952    30.0 4232095     3521.
    ##  4 Sierra Leone  Africa     1952    30.3 2143249      880.
    ##  5 Mozambique    Africa     1952    31.3 6446316      469.
    ##  6 Sierra Leone  Africa     1957    31.6 2295678     1004.
    ##  7 Burkina Faso  Africa     1952    32.0 4469979      543.
    ##  8 Angola        Africa     1957    32.0 4561361     3828.
    ##  9 Gambia        Africa     1957    32.1  323150      521.
    ## 10 Guinea-Bissau Africa     1952    32.5  580653      300.
    ## # ... with 614 more rows
…
